5/dump.vcd
$date
	Tue Apr 29 01:42:25 2025
$end
$version
	Icarus Verilog
$end
$timescale
	100ps
$end
$scope module m_top_wrapper $end
$scope module m $end
$var wire 32 ! w_cc [31:0] $end
$var wire 1 " w_clk $end
$scope module m $end
$var wire 1 " w_clk $end
$var wire 32 # w_tpc [31:0] $end
$var wire 1 $ w_tkn $end
$var wire 32 % w_s2 [31:0] $end
$var wire 32 & w_rt [31:0] $end
$var wire 32 ' w_r2 [31:0] $end
$var wire 32 ( w_r1 [31:0] $end
$var wire 32 ) w_pcin [31:0] $end
$var wire 32 * w_npc [31:0] $end
$var wire 32 + w_ldd [31:0] $end
$var wire 32 , w_ir [31:0] $end
$var wire 32 - w_imm [31:0] $end
$var wire 32 . w_alu [31:0] $end
$var wire 1 / u $end
$var wire 1 0 s $end
$var wire 1 1 r $end
$var wire 1 2 ld $end
$var wire 1 3 j $end
$var wire 1 4 i $end
$var wire 1 5 b $end
$var reg 32 6 r_pc [31:0] $end
$scope module m_ex_alu $end
$var wire 1 $ w_tkn $end
$var wire 32 7 w_out [31:0] $end
$var wire 32 8 w_in2 [31:0] $end
$var wire 32 9 w_in1 [31:0] $end
$upscope $end
$scope module m_id_add $end
$var wire 32 : w_in2 [31:0] $end
$var wire 32 ; w_out [31:0] $end
$var wire 32 < w_in1 [31:0] $end
$upscope $end
$scope module m_id_gen_imm $end
$var wire 1 / w_u $end
$var wire 1 0 w_s $end
$var wire 1 1 w_r $end
$var wire 1 2 w_ld $end
$var wire 1 3 w_j $end
$var wire 32 = w_ir [31:0] $end
$var wire 32 > w_imm [31:0] $end
$var wire 1 4 w_i $end
$var wire 1 5 w_b $end
$scope module m_imm $end
$var wire 1 / u $end
$var wire 1 0 s $end
$var wire 1 3 j $end
$var wire 32 ? ir [31:0] $end
$var wire 32 @ imm [31:0] $end
$var wire 1 4 i $end
$var wire 1 5 b $end
$upscope $end
$scope module m_type $end
$var wire 1 4 i $end
$var wire 5 A opcode5 [4:0] $end
$var wire 1 / u $end
$var wire 1 0 s $end
$var wire 1 1 r $end
$var wire 1 3 j $end
$var wire 1 5 b $end
$upscope $end
$upscope $end
$scope module m_id_mux $end
$var wire 32 B w_in2 [31:0] $end
$var wire 1 C w_s $end
$var wire 32 D w_out [31:0] $end
$var wire 32 E w_in1 [31:0] $end
$upscope $end
$scope module m_id_mux2 $end
$var wire 32 F w_in2 [31:0] $end
$var wire 1 G w_s $end
$var wire 32 H w_out [31:0] $end
$var wire 32 I w_in1 [31:0] $end
$upscope $end
$scope module m_id_rf $end
$var wire 1 " w_clk $end
$var wire 5 J w_ra1 [4:0] $end
$var wire 5 K w_ra2 [4:0] $end
$var wire 5 L w_wa [4:0] $end
$var wire 1 M w_we $end
$var wire 32 N w_wd [31:0] $end
$var wire 32 O w_rd2 [31:0] $end
$var wire 32 P w_rd1 [31:0] $end
$var integer 32 Q i [31:0] $end
$upscope $end
$scope module m_if_add $end
$var wire 32 R w_in1 [31:0] $end
$var wire 32 S w_in2 [31:0] $end
$var wire 32 T w_out [31:0] $end
$upscope $end
$scope module m_if_mem $end
$var wire 32 U w_insn [31:0] $end
$var wire 32 V w_pc [31:0] $end
$var integer 32 W i [31:0] $end
$upscope $end
$scope module ma_dmem $end
$var wire 32 X adr [31:0] $end
$var wire 1 " clk $end
$var wire 32 Y rd [31:0] $end
$var wire 32 Z wd [31:0] $end
$var wire 1 0 we $end
$var integer 32 [ i [31:0] $end
$upscope $end
$scope module wb_mux $end
$var wire 32 \ w_in1 [31:0] $end
$var wire 32 ] w_in2 [31:0] $end
$var wire 1 2 w_s $end
$var wire 32 ^ w_out [31:0] $end
$upscope $end
$upscope $end
$upscope $end
$upscope $end
$enddefinitions $end
$comment Show the parameter values. $end
$dumpall
$end
#0
$dumpvars
b0 ^
b0 ]
b0 \
b1000000 [
b0 Z
b0 Y
b0 X
b1000000 W
b0 V
b10100010011 U
b100 T
b0 S
b100 R
b100000 Q
b0 P
b0 O
b0 N
1M
b1010 L
b0 K
b0 J
b100 I
b100 H
0G
b0 F
b0 E
b0 D
1C
b0 B
b100 A
b0 @
b10100010011 ?
b0 >
b10100010011 =
b0 <
b0 ;
b0 :
b0 9
b0 8
b0 7
b0 6
05
14
03
02
01
00
0/
b0 .
b0 -
b10100010011 ,
b0 +
b100 *
b100 )
b0 (
b0 '
b0 &
b0 %
0$
b0 #
0"
b1 !
$end
#2000
b11 L
b110010011 ,
b110010011 =
b110010011 ?
b110010011 U
b1000 )
b1000 H
b100 #
b100 ;
b100 F
b1000 *
b1000 I
b1000 T
b100 6
b100 :
b100 S
b100 V
b10 !
1"
#2500
0"
#3000
b100000000 &
b100000000 N
b100000000 ^
1$
b100000000 .
b100000000 7
b100000000 X
b100000000 \
b100000000 %
b100000000 8
b100000000 D
b100000000 -
b100000000 <
b100000000 >
b100000000 @
b100000000 B
b1 L
b10000000000000000000010010011 ,
b10000000000000000000010010011 =
b10000000000000000000010010011 ?
b10000000000000000000010010011 U
b1100 )
b1100 H
b11 !
b100001000 #
b100001000 ;
b100001000 F
b1100 *
b1100 I
b1100 T
b1000 6
b1000 :
b1000 S
b1000 V
1"
#3500
0"
#4000
0$
04
b0 &
b0 N
b0 ^
b0 .
b0 7
b0 X
b0 \
b0 %
b0 8
b0 D
b0 -
b0 <
b0 >
b0 @
b0 B
0M
10
b1000 A
b0 L
b11 K
b11 J
b1100011010000000100011 ,
b1100011010000000100011 =
b1100011010000000100011 ?
b1100011010000000100011 U
b10000 )
b10000 H
b1100 #
b1100 ;
b1100 F
b10000 *
b10000 I
b10000 T
b1100 6
b1100 :
b1100 S
b1100 V
b100 !
1"
#4500
0"
#5000
b100 &
b100 N
b100 ^
1$
b100 .
b100 7
b100 X
b100 \
b100 %
b100 8
b100 D
b100 -
b100 <
b100 >
b100 @
b100 B
14
1M
00
b100 A
b11 L
b100 K
b10000011000000110010011 ,
b10000011000000110010011 =
b10000011000000110010011 ?
b10000011000000110010011 U
b10100 )
b10100 H
b101 !
b10100 #
b10100 ;
b10100 F
b10100 *
b10100 I
b10100 T
b10000 6
b10000 :
b10000 S
b10000 V
1"
#5500
0"
#6000
04
1G
b100000000 %
b100000000 8
b100000000 D
b11111111111111111111111111111000 -
b11111111111111111111111111111000 <
b11111111111111111111111111111000 >
b11111111111111111111111111111000 @
b11111111111111111111111111111000 B
b100000000 '
b100000000 E
b100000000 O
b100000000 Z
0C
0M
15
b11000 A
b11001 L
b1 K
b100000100 &
b100000100 N
b100000100 ^
b11111110000100011001110011100011 ,
b11111110000100011001110011100011 =
b11111110000100011001110011100011 ?
b11111110000100011001110011100011 U
1$
b100000100 .
b100000100 7
b100000100 X
b100000100 \
b100 (
b100 9
b100 P
b1100 )
b1100 H
b1100 #
b1100 ;
b1100 F
b11000 *
b11000 I
b11000 T
b10100 6
b10100 :
b10100 S
b10100 V
b110 !
1"
#6500
0"
#7000
04
b100 &
b100 N
b100 ^
b100 .
b100 7
b100 X
b100 \
b0 %
b0 8
b0 D
b0 -
b0 <
b0 >
b0 @
b0 B
b100 '
b100 E
b100 O
b100 Z
1C
0G
10
05
b1000 A
b0 L
b11 K
b1100011010000000100011 ,
b1100011010000000100011 =
b1100011010000000100011 ?
b1100011010000000100011 U
b10000 )
b10000 H
b111 !
b1100 #
b1100 ;
b1100 F
b10000 *
b10000 I
b10000 T
b1100 6
b1100 :
b1100 S
b1100 V
1"
#7500
0"
#8000
b1000 &
b1000 N
b1000 ^
0$
b1000 .
b1000 7
b1000 X
b1000 \
b100 %
b100 8
b100 D
b100 -
b100 <
b100 >
b100 @
b100 B
14
b0 '
b0 E
b0 O
b0 Z
1M
00
b100 A
b11 L
b100 K
b10000011000000110010011 ,
b10000011000000110010011 =
b10000011000000110010011 ?
b10000011000000110010011 U
b10100 )
b10100 H
b0 +
b0 Y
b0 ]
b10100 #
b10100 ;
b10100 F
b10100 *
b10100 I
b10100 T
b10000 6
b10000 :
b10000 S
b10000 V
b1000 !
1"
#8500
0"
#9000
04
b100000000 %
b100000000 8
b100000000 D
b11111111111111111111111111111000 -
b11111111111111111111111111111000 <
b11111111111111111111111111111000 >
b11111111111111111111111111111000 @
b11111111111111111111111111111000 B
b100000000 '
b100000000 E
b100000000 O
b100000000 Z
0C
0M
1G
15
b11000 A
b11001 L
b1 K
b11111110000100011001110011100011 ,
b11111110000100011001110011100011 =
b11111110000100011001110011100011 ?
b11111110000100011001110011100011 U
b100001000 &
b100001000 N
b100001000 ^
b1100 )
b1100 H
1$
b100001000 .
b100001000 7
b100001000 X
b100001000 \
b1000 (
b1000 9
b1000 P
b1001 !
b1100 #
b1100 ;
b1100 F
b11000 *
b11000 I
b11000 T
b10100 6
b10100 :
b10100 S
b10100 V
1"
#9500
0"
#10000
04
b1000 &
b1000 N
b1000 ^
b1000 .
b1000 7
b1000 X
b1000 \
b0 %
b0 8
b0 D
b0 -
b0 <
b0 >
b0 @
b0 B
b1000 '
b1000 E
b1000 O
b1000 Z
1C
0G
10
05
b1000 A
b0 L
b11 K
b1100011010000000100011 ,
b1100011010000000100011 =
b1100011010000000100011 ?
b1100011010000000100011 U
b10000 )
b10000 H
b1100 #
b1100 ;
b1100 F
b10000 *
b10000 I
b10000 T
b1100 6
b1100 :
b1100 S
b1100 V
b1010 !
1"
#10500
0"
#11000
b1100 &
b1100 N
b1100 ^
b1100 .
b1100 7
b1100 X
b1100 \
b100 %
b100 8
b100 D
b100 -
b100 <
b100 >
b100 @
b100 B
14
b0 '
b0 E
b0 O
b0 Z
1M
00
b100 A
b11 L
b100 K
b10000011000000110010011 ,
b10000011000000110010011 =
b10000011000000110010011 ?
b10000011000000110010011 U
b10100 )
b10100 H
b1011 !
b10100 #
b10100 ;
b10100 F
b10100 *
b10100 I
b10100 T
b10000 6
b10000 :
b10000 S
b10000 V
b0 +
b0 Y
b0 ]
1"
#11500
0"
#12000
04
b100000000 %
b100000000 8
b100000000 D
b11111111111111111111111111111000 -
b11111111111111111111111111111000 <
b11111111111111111111111111111000 >
b11111111111111111111111111111000 @
b11111111111111111111111111111000 B
b100000000 '
b100000000 E
b100000000 O
b100000000 Z
0C
0M
1G
15
b11000 A
b11001 L
b1 K
b100001100 &
b100001100 N
b100001100 ^
b11111110000100011001110011100011 ,
b11111110000100011001110011100011 =
b11111110000100011001110011100011 ?
b11111110000100011001110011100011 U
b100001100 .
b100001100 7
b100001100 X
b100001100 \
b1100 (
b1100 9
b1100 P
b1100 )
b1100 H
b1100 #
b1100 ;
b1100 F
b11000 *
b11000 I
b11000 T
b10100 6
b10100 :
b10100 S
b10100 V
b1100 !
1"
#12500
0"
#13000
b0 +
b0 Y
b0 ]
04
b1100 &
b1100 N
b1100 ^
b1100 .
b1100 7
b1100 X
b1100 \
b0 %
b0 8
b0 D
b0 -
b0 <
b0 >
b0 @
b0 B
b1100 '
b1100 E
b1100 O
b1100 Z
1C
0G
10
05
b1000 A
b0 L
b11 K
b1100011010000000100011 ,
b1100011010000000100011 =
b1100011010000000100011 ?
b1100011010000000100011 U
b10000 )
b10000 H
b1101 !
b1100 #
b1100 ;
b1100 F
b10000 *
b10000 I
b10000 T
b1100 6
b1100 :
b1100 S
b1100 V
1"
#13500
0"
#14000
b10000 &
b10000 N
b10000 ^
b10000 .
b10000 7
b10000 X
b10000 \
b100 %
b100 8
b100 D
b100 -
b100 <
b100 >
b100 @
b100 B
14
b0 '
b0 E
b0 O
b0 Z
1M
00
b100 A
b11 L
b100 K
b10000011000000110010011 ,
b10000011000000110010011 =
b10000011000000110010011 ?
b10000011000000110010011 U
b10100 )
b10100 H
b0 +
b0 Y
b0 ]
b10100 #
b10100 ;
b10100 F
b10100 *
b10100 I
b10100 T
b10000 6
b10000 :
b10000 S
b10000 V
b1110 !
1"
#14500
0"
#15000
04
b100000000 %
b100000000 8
b100000000 D
b11111111111111111111111111111000 -
b11111111111111111111111111111000 <
b11111111111111111111111111111000 >
b11111111111111111111111111111000 @
b11111111111111111111111111111000 B
b100000000 '
b100000000 E
b100000000 O
b100000000 Z
0C
0M
1G
15
b11000 A
b11001 L
b1 K
b11111110000100011001110011100011 ,
b11111110000100011001110011100011 =
b11111110000100011001110011100011 ?
b11111110000100011001110011100011 U
b100010000 &
b100010000 N
b100010000 ^
b1100 )
b1100 H
b100010000 .
b100010000 7
b100010000 X
b100010000 \
b10000 (
b10000 9
b10000 P
b1111 !
b1100 #
b1100 ;
b1100 F
b11000 *
b11000 I
b11000 T
b10100 6
b10100 :
b10100 S
b10100 V
1"
#15500
0"
#16000
b0 +
b0 Y
b0 ]
04
b10000 &
b10000 N
b10000 ^
b10000 .
b10000 7
b10000 X
b10000 \
b0 %
b0 8
b0 D
b0 -
b0 <
b0 >
b0 @
b0 B
b10000 '
b10000 E
b10000 O
b10000 Z
1C
0G
10
05
b1000 A
b0 L
b11 K
b1100011010000000100011 ,
b1100011010000000100011 =
b1100011010000000100011 ?
b1100011010000000100011 U
b10000 )
b10000 H
b1100 #
b1100 ;
b1100 F
b10000 *
b10000 I
b10000 T
b1100 6
b1100 :
b1100 S
b1100 V
b10000 !
1"
#16500
0"
#17000
b10100 &
b10100 N
b10100 ^
b10100 .
b10100 7
b10100 X
b10100 \
b100 %
b100 8
b100 D
b100 -
b100 <
b100 >
b100 @
b100 B
14
b0 '
b0 E
b0 O
b0 Z
1M
00
b100 A
b11 L
b100 K
b10000011000000110010011 ,
b10000011000000110010011 =
b10000011000000110010011 ?
b10000011000000110010011 U
b10100 )
b10100 H
b10001 !
b10100 #
b10100 ;
b10100 F
b10100 *
b10100 I
b10100 T
b10000 6
b10000 :
b10000 S
b10000 V
b0 +
b0 Y
b0 ]
1"
#17500
0"
#18000
04
b100000000 %
b100000000 8
b100000000 D
b11111111111111111111111111111000 -
b11111111111111111111111111111000 <
b11111111111111111111111111111000 >
b11111111111111111111111111111000 @
b11111111111111111111111111111000 B
b100000000 '
b100000000 E
b100000000 O
b100000000 Z
0C
0M
1G
15
b11000 A
b11001 L
b1 K
b100010100 &
b100010100 N
b100010100 ^
b11111110000100011001110011100011 ,
b11111110000100011001110011100011 =
b11111110000100011001110011100011 ?
b11111110000100011001110011100011 U
b100010100 .
b100010100 7
b100010100 X
b100010100 \
b10100 (
b10100 9
b10100 P
b1100 )
b1100 H
b1100 #
b1100 ;
b1100 F
b11000 *
b11000 I
b11000 T
b10100 6
b10100 :
b10100 S
b10100 V
b10010 !
1"
#18500
0"
#19000
b0 +
b0 Y
b0 ]
04
b10100 &
b10100 N
b10100 ^
b10100 .
b10100 7
b10100 X
b10100 \
b0 %
b0 8
b0 D
b0 -
b0 <
b0 >
b0 @
b0 B
b10100 '
b10100 E
b10100 O
b10100 Z
1C
0G
10
05
b1000 A
b0 L
b11 K
b1100011010000000100011 ,
b1100011010000000100011 =
b1100011010000000100011 ?
b1100011010000000100011 U
b10000 )
b10000 H
b10011 !
b1100 #
b1100 ;
b1100 F
b10000 *
b10000 I
b10000 T
b1100 6
b1100 :
b1100 S
b1100 V
1"
#19500
0"
#20000
b11000 &
b11000 N
b11000 ^
b11000 .
b11000 7
b11000 X
b11000 \
b100 %
b100 8
b100 D
b100 -
b100 <
b100 >
b100 @
b100 B
14
b0 '
b0 E
b0 O
b0 Z
1M
00
b100 A
b11 L
b100 K
b10000011000000110010011 ,
b10000011000000110010011 =
b10000011000000110010011 ?
b10000011000000110010011 U
b10100 )
b10100 H
b0 +
b0 Y
b0 ]
b10100 #
b10100 ;
b10100 F
b10100 *
b10100 I
b10100 T
b10000 6
b10000 :
b10000 S
b10000 V
b10100 !
1"
#20500
0"
#21000
04
b100000000 %
b100000000 8
b100000000 D
b11111111111111111111111111111000 -
b11111111111111111111111111111000 <
b11111111111111111111111111111000 >
b11111111111111111111111111111000 @
b11111111111111111111111111111000 B
b100000000 '
b100000000 E
b100000000 O
b100000000 Z
0C
0M
1G
15
b11000 A
b11001 L
b1 K
b11111110000100011001110011100011 ,
b11111110000100011001110011100011 =
b11111110000100011001110011100011 ?
b11111110000100011001110011100011 U
b100011000 &
b100011000 N
b100011000 ^
b1100 )
b1100 H
b100011000 .
b100011000 7
b100011000 X
b100011000 \
b11000 (
b11000 9
b11000 P
b10101 !
b1100 #
b1100 ;
b1100 F
b11000 *
b11000 I
b11000 T
b10100 6
b10100 :
b10100 S
b10100 V
1"
#21500
0"
#22000
b0 +
b0 Y
b0 ]
04
b11000 &
b11000 N
b11000 ^
b11000 .
b11000 7
b11000 X
b11000 \
b0 %
b0 8
b0 D
b0 -
b0 <
b0 >
b0 @
b0 B
b11000 '
b11000 E
b11000 O
b11000 Z
1C
0G
10
05
b1000 A
b0 L
b11 K
b1100011010000000100011 ,
b1100011010000000100011 =
b1100011010000000100011 ?
b1100011010000000100011 U
b10000 )
b10000 H
b1100 #
b1100 ;
b1100 F
b10000 *
b10000 I
b10000 T
b1100 6
b1100 :
b1100 S
b1100 V
b10110 !
1"
#22500
0"
#23000
b11100 &
b11100 N
b11100 ^
b11100 .
b11100 7
b11100 X
b11100 \
b100 %
b100 8
b100 D
b100 -
b100 <
b100 >
b100 @
b100 B
14
b0 '
b0 E
b0 O
b0 Z
1M
00
b100 A
b11 L
b100 K
b10000011000000110010011 ,
b10000011000000110010011 =
b10000011000000110010011 ?
b10000011000000110010011 U
b10100 )
b10100 H
b10111 !
b10100 #
b10100 ;
b10100 F
b10100 *
b10100 I
b10100 T
b10000 6
b10000 :
b10000 S
b10000 V
b0 +
b0 Y
b0 ]
1"
#23500
0"
#24000
04
b100000000 %
b100000000 8
b100000000 D
b11111111111111111111111111111000 -
b11111111111111111111111111111000 <
b11111111111111111111111111111000 >
b11111111111111111111111111111000 @
b11111111111111111111111111111000 B
b100000000 '
b100000000 E
b100000000 O
b100000000 Z
0C
0M
1G
15
b11000 A
b11001 L
b1 K
b100011100 &
b100011100 N
b100011100 ^
b11111110000100011001110011100011 ,
b11111110000100011001110011100011 =
b11111110000100011001110011100011 ?
b11111110000100011001110011100011 U
b100011100 .
b100011100 7
b100011100 X
b100011100 \
b11100 (
b11100 9
b11100 P
b1100 )
b1100 H
b1100 #
b1100 ;
b1100 F
b11000 *
b11000 I
b11000 T
b10100 6
b10100 :
b10100 S
b10100 V
b11000 !
1"
#24500
0"
#25000
b0 +
b0 Y
b0 ]
04
b11100 &
b11100 N
b11100 ^
b11100 .
b11100 7
b11100 X
b11100 \
b0 %
b0 8
b0 D
b0 -
b0 <
b0 >
b0 @
b0 B
b11100 '
b11100 E
b11100 O
b11100 Z
1C
0G
10
05
b1000 A
b0 L
b11 K
b1100011010000000100011 ,
b1100011010000000100011 =
b1100011010000000100011 ?
b1100011010000000100011 U
b10000 )
b10000 H
b11001 !
b1100 #
b1100 ;
b1100 F
b10000 *
b10000 I
b10000 T
b1100 6
b1100 :
b1100 S
b1100 V
1"
#25500
0"
#26000
b100000 &
b100000 N
b100000 ^
b100000 .
b100000 7
b100000 X
b100000 \
b100 %
b100 8
b100 D
b100 -
b100 <
b100 >
b100 @
b100 B
14
b0 '
b0 E
b0 O
b0 Z
1M
00
b100 A
b11 L
b100 K
b10000011000000110010011 ,
b10000011000000110010011 =
b10000011000000110010011 ?
b10000011000000110010011 U
b10100 )
b10100 H
b0 +
b0 Y
b0 ]
b10100 #
b10100 ;
b10100 F
b10100 *
b10100 I
b10100 T
b10000 6
b10000 :
b10000 S
b10000 V
b11010 !
1"
#26500
0"
#27000
04
b100000000 %
b100000000 8
b100000000 D
b11111111111111111111111111111000 -
b11111111111111111111111111111000 <
b11111111111111111111111111111000 >
b11111111111111111111111111111000 @
b11111111111111111111111111111000 B
b100000000 '
b100000000 E
b100000000 O
b100000000 Z
0C
0M
1G
15
b11000 A
b11001 L
b1 K
b11111110000100011001110011100011 ,
b11111110000100011001110011100011 =
b11111110000100011001110011100011 ?
b11111110000100011001110011100011 U
b100100000 &
b100100000 N
b100100000 ^
b1100 )
b1100 H
b100100000 .
b100100000 7
b100100000 X
b100100000 \
b100000 (
b100000 9
b100000 P
b11011 !
b1100 #
b1100 ;
b1100 F
b11000 *
b11000 I
b11000 T
b10100 6
b10100 :
b10100 S
b10100 V
1"
#27500
0"
#28000
b0 +
b0 Y
b0 ]
04
b100000 &
b100000 N
b100000 ^
b100000 .
b100000 7
b100000 X
b100000 \
b0 %
b0 8
b0 D
b0 -
b0 <
b0 >
b0 @
b0 B
b100000 '
b100000 E
b100000 O
b100000 Z
1C
0G
10
05
b1000 A
b0 L
b11 K
b1100011010000000100011 ,
b1100011010000000100011 =
b1100011010000000100011 ?
b1100011010000000100011 U
b10000 )
b10000 H
b1100 #
b1100 ;
b1100 F
b10000 *
b10000 I
b10000 T
b1100 6
b1100 :
b1100 S
b1100 V
b11100 !
1"
#28500
0"
#29000
b100100 &
b100100 N
b100100 ^
b100100 .
b100100 7
b100100 X
b100100 \
b100 %
b100 8
b100 D
b100 -
b100 <
b100 >
b100 @
b100 B
14
b0 '
b0 E
b0 O
b0 Z
1M
00
b100 A
b11 L
b100 K
b10000011000000110010011 ,
b10000011000000110010011 =
b10000011000000110010011 ?
b10000011000000110010011 U
b10100 )
b10100 H
b11101 !
b10100 #
b10100 ;
b10100 F
b10100 *
b10100 I
b10100 T
b10000 6
b10000 :
b10000 S
b10000 V
b0 +
b0 Y
b0 ]
1"
#29500
0"
#30000
04
b100000000 %
b100000000 8
b100000000 D
b11111111111111111111111111111000 -
b11111111111111111111111111111000 <
b11111111111111111111111111111000 >
b11111111111111111111111111111000 @
b11111111111111111111111111111000 B
b100000000 '
b100000000 E
b100000000 O
b100000000 Z
0C
0M
1G
15
b11000 A
b11001 L
b1 K
b100100100 &
b100100100 N
b100100100 ^
b11111110000100011001110011100011 ,
b11111110000100011001110011100011 =
b11111110000100011001110011100011 ?
b11111110000100011001110011100011 U
b100100100 .
b100100100 7
b100100100 X
b100100100 \
b100100 (
b100100 9
b100100 P
b1100 )
b1100 H
b1100 #
b1100 ;
b1100 F
b11000 *
b11000 I
b11000 T
b10100 6
b10100 :
b10100 S
b10100 V
b11110 !
1"
#30500
0"
#31000
b0 +
b0 Y
b0 ]
04
b100100 &
b100100 N
b100100 ^
b100100 .
b100100 7
b100100 X
b100100 \
b0 %
b0 8
b0 D
b0 -
b0 <
b0 >
b0 @
b0 B
b100100 '
b100100 E
b100100 O
b100100 Z
1C
0G
10
05
b1000 A
b0 L
b11 K
b1100011010000000100011 ,
b1100011010000000100011 =
b1100011010000000100011 ?
b1100011010000000100011 U
b10000 )
b10000 H
b11111 !
b1100 #
b1100 ;
b1100 F
b10000 *
b10000 I
b10000 T
b1100 6
b1100 :
b1100 S
b1100 V
1"
#31500
0"
#32000
b101000 &
b101000 N
b101000 ^
b101000 .
b101000 7
b101000 X
b101000 \
b100 %
b100 8
b100 D
b100 -
b100 <
b100 >
b100 @
b100 B
14
b0 '
b0 E
b0 O
b0 Z
1M
00
b100 A
b11 L
b100 K
b10000011000000110010011 ,
b10000011000000110010011 =
b10000011000000110010011 ?
b10000011000000110010011 U
b10100 )
b10100 H
b0 +
b0 Y
b0 ]
b10100 #
b10100 ;
b10100 F
b10100 *
b10100 I
b10100 T
b10000 6
b10000 :
b10000 S
b10000 V
b100000 !
1"
#32500
0"
#33000
04
b100000000 %
b100000000 8
b100000000 D
b11111111111111111111111111111000 -
b11111111111111111111111111111000 <
b11111111111111111111111111111000 >
b11111111111111111111111111111000 @
b11111111111111111111111111111000 B
b100000000 '
b100000000 E
b100000000 O
b100000000 Z
0C
0M
1G
15
b11000 A
b11001 L
b1 K
b11111110000100011001110011100011 ,
b11111110000100011001110011100011 =
b11111110000100011001110011100011 ?
b11111110000100011001110011100011 U
b100101000 &
b100101000 N
b100101000 ^
b1100 )
b1100 H
b100101000 .
b100101000 7
b100101000 X
b100101000 \
b101000 (
b101000 9
b101000 P
b100001 !
b1100 #
b1100 ;
b1100 F
b11000 *
b11000 I
b11000 T
b10100 6
b10100 :
b10100 S
b10100 V
1"
#33500
0"
#34000
b0 +
b0 Y
b0 ]
04
b101000 &
b101000 N
b101000 ^
b101000 .
b101000 7
b101000 X
b101000 \
b0 %
b0 8
b0 D
b0 -
b0 <
b0 >
b0 @
b0 B
b101000 '
b101000 E
b101000 O
b101000 Z
1C
0G
10
05
b1000 A
b0 L
b11 K
b1100011010000000100011 ,
b1100011010000000100011 =
b1100011010000000100011 ?
b1100011010000000100011 U
b10000 )
b10000 H
b1100 #
b1100 ;
b1100 F
b10000 *
b10000 I
b10000 T
b1100 6
b1100 :
b1100 S
b1100 V
b100010 !
1"
#34500
0"
#35000
b101100 &
b101100 N
b101100 ^
b101100 .
b101100 7
b101100 X
b101100 \
b100 %
b100 8
b100 D
b100 -
b100 <
b100 >
b100 @
b100 B
14
b0 '
b0 E
b0 O
b0 Z
1M
00
b100 A
b11 L
b100 K
b10000011000000110010011 ,
b10000011000000110010011 =
b10000011000000110010011 ?
b10000011000000110010011 U
b10100 )
b10100 H
b100011 !
b10100 #
b10100 ;
b10100 F
b10100 *
b10100 I
b10100 T
b10000 6
b10000 :
b10000 S
b10000 V
b0 +
b0 Y
b0 ]
1"
#35500
0"
#36000
04
b100000000 %
b100000000 8
b100000000 D
b11111111111111111111111111111000 -
b11111111111111111111111111111000 <
b11111111111111111111111111111000 >
b11111111111111111111111111111000 @
b11111111111111111111111111111000 B
b100000000 '
b100000000 E
b100000000 O
b100000000 Z
0C
0M
1G
15
b11000 A
b11001 L
b1 K
b100101100 &
b100101100 N
b100101100 ^
b11111110000100011001110011100011 ,
b11111110000100011001110011100011 =
b11111110000100011001110011100011 ?
b11111110000100011001110011100011 U
b100101100 .
b100101100 7
b100101100 X
b100101100 \
b101100 (
b101100 9
b101100 P
b1100 )
b1100 H
b1100 #
b1100 ;
b1100 F
b11000 *
b11000 I
b11000 T
b10100 6
b10100 :
b10100 S
b10100 V
b100100 !
1"
#36500
0"
#37000
b0 +
b0 Y
b0 ]
04
b101100 &
b101100 N
b101100 ^
b101100 .
b101100 7
b101100 X
b101100 \
b0 %
b0 8
b0 D
b0 -
b0 <
b0 >
b0 @
b0 B
b101100 '
b101100 E
b101100 O
b101100 Z
1C
0G
10
05
b1000 A
b0 L
b11 K
b1100011010000000100011 ,
b1100011010000000100011 =
b1100011010000000100011 ?
b1100011010000000100011 U
b10000 )
b10000 H
b100101 !
b1100 #
b1100 ;
b1100 F
b10000 *
b10000 I
b10000 T
b1100 6
b1100 :
b1100 S
b1100 V
1"
#37500
0"
#38000
b110000 &
b110000 N
b110000 ^
b110000 .
b110000 7
b110000 X
b110000 \
b100 %
b100 8
b100 D
b100 -
b100 <
b100 >
b100 @
b100 B
14
b0 '
b0 E
b0 O
b0 Z
1M
00
b100 A
b11 L
b100 K
b10000011000000110010011 ,
b10000011000000110010011 =
b10000011000000110010011 ?
b10000011000000110010011 U
b10100 )
b10100 H
b0 +
b0 Y
b0 ]
b10100 #
b10100 ;
b10100 F
b10100 *
b10100 I
b10100 T
b10000 6
b10000 :
b10000 S
b10000 V
b100110 !
1"
#38500
0"
#39000
04
b100000000 %
b100000000 8
b100000000 D
b11111111111111111111111111111000 -
b11111111111111111111111111111000 <
b11111111111111111111111111111000 >
b11111111111111111111111111111000 @
b11111111111111111111111111111000 B
b100000000 '
b100000000 E
b100000000 O
b100000000 Z
0C
0M
1G
15
b11000 A
b11001 L
b1 K
b11111110000100011001110011100011 ,
b11111110000100011001110011100011 =
b11111110000100011001110011100011 ?
b11111110000100011001110011100011 U
b100110000 &
b100110000 N
b100110000 ^
b1100 )
b1100 H
b100110000 .
b100110000 7
b100110000 X
b100110000 \
b110000 (
b110000 9
b110000 P
b100111 !
b1100 #
b1100 ;
b1100 F
b11000 *
b11000 I
b11000 T
b10100 6
b10100 :
b10100 S
b10100 V
1"
#39500
0"
#40000
b0 +
b0 Y
b0 ]
04
b110000 &
b110000 N
b110000 ^
b110000 .
b110000 7
b110000 X
b110000 \
b0 %
b0 8
b0 D
b0 -
b0 <
b0 >
b0 @
b0 B
b110000 '
b110000 E
b110000 O
b110000 Z
1C
0G
10
05
b1000 A
b0 L
b11 K
b1100011010000000100011 ,
b1100011010000000100011 =
b1100011010000000100011 ?
b1100011010000000100011 U
b10000 )
b10000 H
b1100 #
b1100 ;
b1100 F
b10000 *
b10000 I
b10000 T
b1100 6
b1100 :
b1100 S
b1100 V
b101000 !
1"
#40500
0"
#41000
b110100 &
b110100 N
b110100 ^
b110100 .
b110100 7
b110100 X
b110100 \
b100 %
b100 8
b100 D
b100 -
b100 <
b100 >
b100 @
b100 B
14
b0 '
b0 E
b0 O
b0 Z
1M
00
b100 A
b11 L
b100 K
b10000011000000110010011 ,
b10000011000000110010011 =
b10000011000000110010011 ?
b10000011000000110010011 U
b10100 )
b10100 H
b101001 !
b10100 #
b10100 ;
b10100 F
b10100 *
b10100 I
b10100 T
b10000 6
b10000 :
b10000 S
b10000 V
b0 +
b0 Y
b0 ]
1"
#41500
0"
#42000
04
b100000000 %
b100000000 8
b100000000 D
b11111111111111111111111111111000 -
b11111111111111111111111111111000 <
b11111111111111111111111111111000 >
b11111111111111111111111111111000 @
b11111111111111111111111111111000 B
b100000000 '
b100000000 E
b100000000 O
b100000000 Z
0C
0M
1G
15
b11000 A
b11001 L
b1 K
b100110100 &
b100110100 N
b100110100 ^
b11111110000100011001110011100011 ,
b11111110000100011001110011100011 =
b11111110000100011001110011100011 ?
b11111110000100011001110011100011 U
b100110100 .
b100110100 7
b100110100 X
b100110100 \
b110100 (
b110100 9
b110100 P
b1100 )
b1100 H
b1100 #
b1100 ;
b1100 F
b11000 *
b11000 I
b11000 T
b10100 6
b10100 :
b10100 S
b10100 V
b101010 !
1"
#42500
0"
